{
    "species": "cobblemon:girafarig",
    "order": 0,
    "variations": [
      {
        "aspects": [],
        "poser": "cobblemon:girafarig",
        "model": "cobblemon:girafarig_male.geo",
        "texture": "cobblemon:textures/pokemon/0203_girafarig/girafarig.png",
        "layers": []
      },
      {
        "aspects": [
          "shiny"
        ],
        "texture": "cobblemon:textures/pokemon/0203_girafarig/girafarig_shiny.png"
      }
    ]
  }