{
    "type": "minecraft:crafting_shaped",
    "pattern": [
        "  Q",
        "CPC",
		"Q  "
    ],
    "key": {
        "Q": {
            "item": "minecraft:quartz"
        },
        "C": {
            "item": "minecraft:copper_ingot"
        },
        "P": {
            "item": "minecraft:ender_pearl"
        }
    },
    "result": {
        "item": "cobblemon:link_cable"
    }
}
