{
  "type": "minecraft:crafting_shaped",
  "category": "misc",
  "key": {
    "#": {
      "item": "cobblemon:polished_sky_tumblestone"
    }
  },
  "pattern": [
    "###",
    "###"
  ],
  "result": {
    "count": 6,
    "item": "cobblemon:polished_sky_tumblestone_wall"
  }
}