{
  "species": "cobblemon:ledyba",
  "order": 0,
  "variations": [
    {
      "aspects": [],
      "poser": "cobblemon:ledyba",
      "model": "cobblemon:ledyba_male.geo",
      "texture": "cobblemon:textures/pokemon/0165_ledyba/ledyba.png",
      "layers": []
    },
    {
      "aspects": [
        "shiny"
      ],
      "texture": "cobblemon:textures/pokemon/0165_ledyba/ledyba_shiny.png"
    }
  ]
}