{
  "replace": false,
  "values": [
    "cobblemon:ability_shield",
    "cobblemon:absorb_bulb",
    "cobblemon:air_balloon",
    "cobblemon:assault_vest",
    "cobblemon:big_root",
    "cobblemon:binding_band",
    "cobblemon:black_belt",
    "cobblemon:black_glasses",
    "cobblemon:black_sludge",
    "cobblemon:blunder_policy",
    "cobblemon:cell_battery",
    "cobblemon:charcoal_stick",
    "cobblemon:choice_band",
    "cobblemon:choice_scarf",
    "cobblemon:choice_specs",
    "cobblemon:cleanse_tag",

    "cobblemon:covert_cloak",
    "cobblemon:destiny_knot",
    "cobblemon:deep_sea_scale",
    "cobblemon:deep_sea_tooth",
    "cobblemon:dragon_fang",
    "cobblemon:eject_button",
    "cobblemon:eject_pack",
    "cobblemon:everstone",
    "cobblemon:eviolite",
    "cobblemon:exp_share",
    "cobblemon:expert_belt",
    "cobblemon:fairy_feather",
    "cobblemon:flame_orb",
    "cobblemon:float_stone",
    "cobblemon:focus_band",
    "cobblemon:focus_sash",

    "cobblemon:hard_stone",
    "cobblemon:heavy_duty_boots",
    "cobblemon:iron_ball",
    "cobblemon:kings_rock",

    "cobblemon:leftovers",
    "cobblemon:life_orb",
    "cobblemon:light_ball",
    "cobblemon:light_clay",
    "cobblemon:loaded_dice",
    "cobblemon:lucky_egg",

    "cobblemon:magnet",
    "cobblemon:metal_coat",
    "cobblemon:metronome",
    "cobblemon:miracle_seed",
    "cobblemon:muscle_band",
    "cobblemon:mystic_water",
    "cobblemon:never_melt_ice",
    "cobblemon:poison_barb",
    "cobblemon:power_anklet",
    "cobblemon:power_band",
    "cobblemon:power_belt",
    "cobblemon:power_bracer",
    "cobblemon:power_lens",
    "cobblemon:power_weight",
    "cobblemon:protective_pads",
    "cobblemon:punching_glove",
    "cobblemon:quick_claw",
    "cobblemon:razor_claw",
	"cobblemon:razor_fang",
    "cobblemon:red_card",
    "cobblemon:ring_target",
    "cobblemon:rocky_helmet",
    "cobblemon:room_service",
    "cobblemon:safety_goggles",
    "cobblemon:scope_lens",
    "cobblemon:sharp_beak",
    "cobblemon:shed_shell",
    "cobblemon:shell_bell",
    "cobblemon:silk_scarf",
    "cobblemon:silver_powder",
    "cobblemon:smoke_ball",
    "cobblemon:soft_sand",
    "cobblemon:spell_tag",
    "cobblemon:sticky_barb",
    "cobblemon:terrain_extender",
    "cobblemon:throat_spray",
    "cobblemon:toxic_orb",
    "cobblemon:twisted_spoon",
    "cobblemon:utility_umbrella",
    "cobblemon:weakness_policy",
    "cobblemon:wide_lens",
    "cobblemon:wise_glasses",
    "cobblemon:zoom_lens",
    "cobblemon:bright_powder",
    "cobblemon:metal_powder",
    "cobblemon:quick_powder",
    "cobblemon:mental_herb",
    "cobblemon:mirror_herb",
    "cobblemon:power_herb",
    "cobblemon:white_herb",
    "cobblemon:damp_rock",
    "cobblemon:heat_rock",
    "cobblemon:smooth_rock",
    "cobblemon:icy_rock",
    "cobblemon:life_orb",
    "cobblemon:toxic_orb",
    "cobblemon:flame_orb",
	"cobblemon:white_herb",
	"cobblemon:smoke_ball",
	"cobblemon:lucky_egg",
	"cobblemon:kings_rock",
	"cobblemon:deep_sea_scale",
	"cobblemon:deep_sea_tooth",
	"cobblemon:metal_coat",
	"cobblemon:medicinal_leek",
	"minecraft:bone",
	"minecraft:snowball",
	"#cobblemon:type_gems"
  ]
}