{
    "portraitScale": 2.069,
    "portraitTranslation": [0.15, -1.53, 0],
    "profileScale": 1.18,
    "profileTranslation": [-0.02, -0.12, 0],
    "animations": { },
    "poses": {
      "standing": {
        "poseName": "standing",
        "poseTypes": ["STAND", "WALK", "NONE", "PORTRAIT", "PROFILE", "FLOAT", "HOVER", "SWIM", "FLY"],
        "animations": [
          "q.bedrock('sunkern', 'ground_idle')"
        ],
        "quirks": [
          "q.bedrock_quirk('sunkern', 'blink')"
        ]
      }
    }
  }